<svg width="148" height="81" viewBox="0 0 148 81" fill="none" xmlns="http://www.w3.org/2000/svg">
<path opacity="0.9" fill-rule="evenodd" clip-rule="evenodd" d="M49.1332 1.80002C47.8315 1.68151 46.5251 1.62216 45.218 1.62216C21.3697 1.62216 2.0369 20.955 2.0369 44.8033V59.8797C2.0369 62.9273 2.75166 65.9324 4.12377 68.6535C8.96942 78.2635 20.688 82.1258 30.298 77.2801L50.9048 66.8896C57.1032 63.7641 63.9483 62.136 70.8901 62.136H116.863C131.627 62.136 144.058 51.0938 145.799 36.4327L145.923 35.3872C145.949 35.1694 145.972 34.9511 145.992 34.7326C147.194 21.5242 137.462 9.84171 124.253 8.63917L49.1332 1.80002Z" stroke="#808083" stroke-width="2.50531"/>
<path d="M112.168 38.4115V27.7417V34.5776C112.168 36.1557 110.89 37.4353 109.314 37.4353H107.175C105.6 37.4353 104.322 36.1557 104.322 34.5776V33.1487C104.322 31.5694 105.6 30.2898 107.175 30.2898H109.314C110.89 30.2898 112.168 29.0102 112.168 27.4321V26.717" stroke="#808083" stroke-width="2.72962"/>
<path d="M81.4303 27.3598V34.5053C81.4303 36.0834 82.7077 37.363 84.283 37.363H86.4219C87.9985 37.363 89.2759 36.0834 89.2759 34.5053V33.0765C89.2759 31.4971 87.9985 30.2175 86.4219 30.2175H84.283C82.7077 30.2175 81.4303 28.9379 81.4303 27.3598ZM81.4303 27.3598V26.6448" stroke="#808083" stroke-width="2.72962"/>
<path d="M36.4939 35.2196V33.0757C36.4939 31.4976 37.7713 30.218 39.3479 30.218H41.4868C43.0633 30.218 44.3395 31.4976 44.3395 33.0757V34.5046C44.3395 36.0826 43.0633 37.3635 41.4868 37.3635H39.3479C37.7713 37.3635 36.4939 38.6419 36.4939 40.2212V40.935" stroke="#808083" stroke-width="2.72962"/>
<path fill-rule="evenodd" clip-rule="evenodd" d="M97.1754 37.29H96.4629C94.4928 37.29 92.8964 35.6908 92.8964 33.7173C92.8964 31.745 94.4928 30.1445 96.4629 30.1445H97.1754C99.1455 30.1445 100.742 31.745 100.742 33.7173C100.742 35.6908 99.1455 37.29 97.1754 37.29Z" stroke="#808083" stroke-width="2.72962"/>
<path fill-rule="evenodd" clip-rule="evenodd" d="M63.5969 37.3628H62.8831C60.9143 37.3628 59.3166 35.7636 59.3166 33.79C59.3166 31.8177 60.9143 30.2173 62.8831 30.2173H63.5969C65.5658 30.2173 67.1622 31.8177 67.1622 33.79C67.1622 35.7636 65.5658 37.3628 63.5969 37.3628Z" stroke="#808083" stroke-width="2.72962"/>
<path fill-rule="evenodd" clip-rule="evenodd" d="M52.1855 37.3628H51.4717C49.5028 37.3628 47.9064 35.7636 47.9064 33.79C47.9064 31.8177 49.5028 30.2173 51.4717 30.2173H52.1855C54.1555 30.2173 55.752 31.8177 55.752 33.79C55.752 35.7636 54.1555 37.3628 52.1855 37.3628Z" stroke="#808083" stroke-width="2.72962"/>
<path d="M70.7794 29.2539L70.7559 34.5266C70.7559 36.1047 72.0345 37.3843 73.6098 37.3843H76.2292" stroke="#808083" stroke-width="2.72962"/>
</svg>
