<svg width="85" height="66" viewBox="0 0 85 66" fill="none" xmlns="http://www.w3.org/2000/svg">
<rect x="1.5" y="1.5" width="82" height="63" rx="5.5" fill="url(#paint0_linear)" fill-opacity="0.3" stroke="url(#paint1_linear)" stroke-width="3"/>
<path fill-rule="evenodd" clip-rule="evenodd" d="M42.6408 16.2705C38.6118 16.2705 35.316 19.7122 35.316 23.9195V24.2466V25.3843C38.8706 25.6451 40.3914 24.787 44.0662 23.3458C46.3905 22.6514 47.5709 23.9692 49.9655 25.4341V25.3843V24.2466V23.9195C49.9655 19.7122 46.6697 16.2705 42.6408 16.2705Z" fill="url(#paint2_linear)"/>
<path fill-rule="evenodd" clip-rule="evenodd" d="M35.316 25.3845V28.6199C35.316 28.9233 35.3342 29.2243 35.3683 29.5182C35.652 32.0212 37.1047 34.1663 39.1384 35.3302C40.1802 35.9275 41.3742 36.2688 42.6407 36.2688C43.9072 36.2688 45.1012 35.9275 46.143 35.3302C47.1803 34.7376 48.0655 33.8891 48.7215 32.8698C49.3547 31.8885 49.7769 30.746 49.9154 29.5182C49.9494 29.2243 49.9653 28.9233 49.9653 28.6199V25.4342C47.5707 23.9694 46.3904 22.6515 44.0661 23.346C40.3914 24.7872 38.8706 25.6453 35.316 25.3845Z" fill="url(#paint3_linear)"/>
<path fill-rule="evenodd" clip-rule="evenodd" d="M31.9249 26.4392V27.3233C31.9249 28.5298 32.8692 29.5182 34.0244 29.5182H35.3682C35.3341 29.2243 35.316 28.9232 35.316 28.6199V25.3844V24.2467H34.0244C32.8692 24.2467 31.9249 25.2328 31.9249 26.4392Z" fill="url(#paint4_linear)"/>
<path fill-rule="evenodd" clip-rule="evenodd" d="M49.9656 25.4343V28.6199C49.9656 28.9232 49.9498 29.2243 49.9156 29.5182H51.2571C52.0652 29.5182 52.7711 29.0346 53.1229 28.3283C53.2728 28.0273 53.3568 27.6859 53.3568 27.3233V26.4392C53.3568 25.2327 52.4125 24.2467 51.2572 24.2467H49.9657V25.3844V25.4343H49.9656Z" fill="url(#paint5_linear)"/>
<path fill-rule="evenodd" clip-rule="evenodd" d="M39.1384 35.3301V38.8264L42.6407 41.2939L46.143 38.8264V35.3301C45.1012 35.9274 43.9072 36.2688 42.6407 36.2688C41.3742 36.2688 40.1803 35.9275 39.1384 35.3301Z" fill="url(#paint6_linear)"/>
<path fill-rule="evenodd" clip-rule="evenodd" d="M41.1949 47.3146L39.74 53.9773H45.5439L44.0867 47.3146H41.1949Z" fill="url(#paint7_linear)"/>
<path fill-rule="evenodd" clip-rule="evenodd" d="M40.1145 43.074L41.1949 47.3145H44.0867L45.1671 43.074L42.6408 41.2939L40.1145 43.074Z" fill="url(#paint8_linear)"/>
<path fill-rule="evenodd" clip-rule="evenodd" d="M36.0787 39.7793L38.3191 44.3374L40.1145 43.074L42.6408 41.2939L39.1385 38.8264C38.2283 39.1393 37.1728 39.438 36.0787 39.7793Z" fill="url(#paint9_linear)"/>
<path fill-rule="evenodd" clip-rule="evenodd" d="M46.1431 38.8264L42.6408 41.2939L45.1671 43.074L46.9648 44.3374L49.2028 39.7793C48.1088 39.438 47.0533 39.1393 46.1431 38.8264Z" fill="url(#paint10_linear)"/>
<path fill-rule="evenodd" clip-rule="evenodd" d="M49.2029 39.7792L46.9648 44.3372L45.1671 43.0739L44.0867 47.3143L45.544 53.9772H57.481V47.4495C57.406 42.7018 53.0638 40.9785 49.2029 39.7792Z" fill="url(#paint11_linear)"/>
<path fill-rule="evenodd" clip-rule="evenodd" d="M36.0787 39.7792C32.2177 40.9785 27.8756 42.7017 27.8007 47.4494V53.9772H39.7399L41.1949 47.3143L40.1145 43.0738L38.319 44.3372L36.0787 39.7792Z" fill="url(#paint12_linear)"/>
<path d="M58.2816 47.4358C58.1905 41.6173 52.4934 39.8982 48.3335 38.643C47.8481 38.4965 47.3813 38.3556 46.9439 38.215V35.8147C47.7944 35.258 48.5396 34.5416 49.1407 33.706H51.6747C52.9147 33.706 53.9237 32.6525 53.9237 31.3576V28.5149C54.074 28.1489 54.1575 27.7462 54.1575 27.3234V26.4392C54.1575 26.0168 54.074 25.6143 53.9237 25.2486V23.7821C53.9237 17.2855 48.8622 12 42.6408 12C36.4207 12 31.3603 17.2855 31.3603 23.7822V25.2068C31.3603 25.218 31.3615 25.2287 31.3619 25.2399C31.2092 25.608 31.1242 26.0134 31.1242 26.4393V27.3234C31.1242 28.9948 32.4253 30.3545 34.0246 30.3545H34.6863C35.1447 32.6497 36.4941 34.6073 38.3377 35.8143V38.215C37.9003 38.3556 37.4336 38.4965 36.9482 38.643C32.7883 39.8982 27.0912 41.6173 27.0001 47.4358C27 47.4404 27 47.4449 27 47.4495V53.9773C27 54.4391 27.3586 54.8135 27.8008 54.8135H30.1749C30.6171 54.8135 30.9757 54.4391 30.9757 53.9773C30.9757 53.5154 30.6171 53.1411 30.1749 53.1411H28.6015V47.4565C28.6352 45.4264 29.5282 43.9046 31.4118 42.6674C32.6547 41.8511 34.1741 41.2694 35.6719 40.7828L37.6067 44.7192C37.8224 45.1579 38.3745 45.307 38.7669 45.0306L39.6296 44.4229L40.3702 47.3298L39.1012 53.141H37.3658C36.9236 53.141 36.565 53.5154 36.565 53.9772C36.565 54.439 36.9236 54.8134 37.3658 54.8134H57.4809C57.9231 54.8134 58.2817 54.439 58.2817 53.9772V47.4494C58.2817 47.4449 58.2817 47.4404 58.2816 47.4358ZM47.8889 40.2496C47.9416 40.2654 47.9953 40.2818 48.0485 40.2978L46.6641 43.117L44.0735 41.2928L46.2686 39.7468C46.7785 39.9143 47.3208 40.0781 47.8889 40.2496ZM42.6414 42.3015L44.2471 43.4322L43.4711 46.4782H41.8106L41.0348 43.4332L42.6414 42.3015ZM42.6412 40.2843L39.9392 38.3817V36.6214C40.7849 36.9337 41.6939 37.105 42.6408 37.105C43.5875 37.105 44.4967 36.9343 45.3423 36.6219V38.3817L42.6412 40.2843ZM49.1647 23.9351C49.1538 23.9279 49.1429 23.9206 49.1319 23.9133C47.4888 22.8211 46.0696 21.8777 43.846 22.5421C43.8254 22.5483 43.8049 22.5553 43.7848 22.5632C43.3133 22.7481 42.8847 22.9204 42.47 23.0871C39.9377 24.105 38.5551 24.6609 36.1168 24.5893V23.9197C36.1168 20.1631 39.0435 17.1069 42.6408 17.1069C46.238 17.1069 49.1647 20.1631 49.1647 23.9197V23.9351H49.1647ZM52.3221 31.3576C52.3221 31.7304 52.0317 32.0336 51.6747 32.0336H50.0789C50.3043 31.5002 50.4788 30.9383 50.5954 30.3544H51.2572C51.6332 30.3544 51.9922 30.2785 52.3222 30.1418V31.3576H52.3221ZM52.5559 27.3234C52.5559 28.0725 51.9733 28.682 51.2571 28.682H50.7656C50.7658 28.6613 50.7664 25.0829 50.7664 25.0829H51.2572C51.9733 25.0829 52.556 25.6913 52.556 26.4392V27.3234H52.5559ZM34.0246 28.6821C33.3084 28.6821 32.7258 28.0726 32.7258 27.3234V26.4393C32.7258 25.6914 33.3083 25.083 34.0246 25.083H34.5154C34.5154 25.083 34.516 28.6614 34.5162 28.6821H34.0246ZM34.5303 23.4105H34.0245C33.6501 23.4105 33.2926 23.4858 32.9638 23.6212C33.0465 18.1207 37.3553 13.6724 42.6408 13.6724C47.9279 13.6724 52.2379 18.1212 52.3201 23.6221C51.9907 23.4861 51.6323 23.4105 51.2571 23.4105H50.7513C50.4982 18.9679 46.9575 15.4345 42.6408 15.4345C38.3241 15.4345 34.7834 18.968 34.5303 23.4105ZM36.1651 29.4334C36.165 29.4326 36.1648 29.4318 36.1647 29.4309C36.1344 29.1648 36.1169 28.8945 36.1169 28.62V26.2616C38.8567 26.3314 40.491 25.6748 43.0454 24.6479C43.4477 24.4862 43.8636 24.319 44.3166 24.1412C45.8292 23.7002 46.6996 24.279 48.2719 25.3242C48.5447 25.5055 48.844 25.7043 49.1647 25.9084V28.62C49.1647 29.8635 48.8425 31.0292 48.283 32.0337H42.6408C42.1986 32.0337 41.8401 32.4081 41.8401 32.8699C41.8401 33.3317 42.1986 33.7061 42.6408 33.7061H46.975C45.8217 34.779 44.3033 35.4327 42.6408 35.4327C39.3073 35.4326 36.5514 32.8076 36.1651 29.4334ZM38.6195 43.1171L37.2336 40.2976C37.2866 40.2817 37.3401 40.2654 37.3928 40.2496C37.9609 40.0781 38.5032 39.9142 39.0133 39.7467L41.2092 41.293L38.6195 43.1171ZM40.7439 53.1411L41.8337 48.1506H43.4482L44.5397 53.1411H40.7439ZM56.6801 53.1411H46.1825L44.9115 47.3297L45.6524 44.4217L46.5172 45.0306C46.9097 45.307 47.4619 45.1579 47.6775 44.7189L49.6101 40.783C51.1078 41.2696 52.6272 41.8511 53.87 42.6674C55.7534 43.9045 56.6466 45.4264 56.6803 47.4565V53.1411H56.6801Z" fill="url(#paint13_linear)"/>
<path d="M53.5178 48.9598H49.4821C49.0399 48.9598 48.6813 49.3342 48.6813 49.7961C48.6813 50.2579 49.0399 50.6323 49.4821 50.6323H53.5178C53.96 50.6323 54.3186 50.2579 54.3186 49.7961C54.3186 49.3342 53.9601 48.9598 53.5178 48.9598Z" fill="url(#paint14_linear)"/>
<path d="M33.7704 53.1411C33.3282 53.1411 32.9696 53.5155 32.9696 53.9773C32.9696 54.4391 33.3282 54.8135 33.7704 54.8135H33.7726C34.2148 54.8135 34.5722 54.4391 34.5722 53.9773C34.5722 53.5155 34.2126 53.1411 33.7704 53.1411Z" fill="url(#paint15_linear)"/>
<defs>
<linearGradient id="paint0_linear" x1="42.5" y1="0" x2="42.5" y2="66" gradientUnits="userSpaceOnUse">
<stop stop-color="#CCAC8C"/>
<stop offset="1" stop-color="#CCAC8C" stop-opacity="0"/>
</linearGradient>
<linearGradient id="paint1_linear" x1="42.5" y1="0" x2="42.5" y2="66" gradientUnits="userSpaceOnUse">
<stop stop-color="#CCAC8C"/>
<stop offset="1" stop-color="#CCAC8C" stop-opacity="0"/>
</linearGradient>
<linearGradient id="paint2_linear" x1="42.6408" y1="16.2705" x2="42.6408" y2="25.4341" gradientUnits="userSpaceOnUse">
<stop stop-color="#CCAC8C"/>
<stop offset="1" stop-color="#CCAC8C" stop-opacity="0"/>
</linearGradient>
<linearGradient id="paint3_linear" x1="42.6407" y1="23.1553" x2="42.6407" y2="36.2688" gradientUnits="userSpaceOnUse">
<stop stop-color="#CCAC8C"/>
<stop offset="1" stop-color="#CCAC8C" stop-opacity="0"/>
</linearGradient>
<linearGradient id="paint4_linear" x1="33.6465" y1="24.2467" x2="33.6465" y2="29.5182" gradientUnits="userSpaceOnUse">
<stop stop-color="#CCAC8C"/>
<stop offset="1" stop-color="#CCAC8C" stop-opacity="0"/>
</linearGradient>
<linearGradient id="paint5_linear" x1="51.6362" y1="24.2467" x2="51.6362" y2="29.5182" gradientUnits="userSpaceOnUse">
<stop stop-color="#CCAC8C"/>
<stop offset="1" stop-color="#CCAC8C" stop-opacity="0"/>
</linearGradient>
<linearGradient id="paint6_linear" x1="42.6407" y1="35.3301" x2="42.6407" y2="41.2939" gradientUnits="userSpaceOnUse">
<stop stop-color="#CCAC8C"/>
<stop offset="1" stop-color="#CCAC8C" stop-opacity="0"/>
</linearGradient>
<linearGradient id="paint7_linear" x1="42.6419" y1="47.3146" x2="42.6419" y2="53.9773" gradientUnits="userSpaceOnUse">
<stop stop-color="#CCAC8C"/>
<stop offset="1" stop-color="#CCAC8C" stop-opacity="0"/>
</linearGradient>
<linearGradient id="paint8_linear" x1="42.6408" y1="41.2939" x2="42.6408" y2="47.3145" gradientUnits="userSpaceOnUse">
<stop stop-color="#CCAC8C"/>
<stop offset="1" stop-color="#CCAC8C" stop-opacity="0"/>
</linearGradient>
<linearGradient id="paint9_linear" x1="39.3598" y1="38.8264" x2="39.3598" y2="44.3374" gradientUnits="userSpaceOnUse">
<stop stop-color="#CCAC8C"/>
<stop offset="1" stop-color="#CCAC8C" stop-opacity="0"/>
</linearGradient>
<linearGradient id="paint10_linear" x1="45.9218" y1="38.8264" x2="45.9218" y2="44.3374" gradientUnits="userSpaceOnUse">
<stop stop-color="#CCAC8C"/>
<stop offset="1" stop-color="#CCAC8C" stop-opacity="0"/>
</linearGradient>
<linearGradient id="paint11_linear" x1="50.7838" y1="39.7792" x2="50.7838" y2="53.9772" gradientUnits="userSpaceOnUse">
<stop stop-color="#CCAC8C"/>
<stop offset="1" stop-color="#CCAC8C" stop-opacity="0"/>
</linearGradient>
<linearGradient id="paint12_linear" x1="34.4978" y1="39.7792" x2="34.4978" y2="53.9772" gradientUnits="userSpaceOnUse">
<stop stop-color="#CCAC8C"/>
<stop offset="1" stop-color="#CCAC8C" stop-opacity="0"/>
</linearGradient>
<linearGradient id="paint13_linear" x1="42.6408" y1="12" x2="42.6408" y2="54.8135" gradientUnits="userSpaceOnUse">
<stop stop-color="#CCAC8C"/>
<stop offset="1" stop-color="#CCAC8C" stop-opacity="0"/>
</linearGradient>
<linearGradient id="paint14_linear" x1="51.5" y1="48.9598" x2="51.5" y2="50.6323" gradientUnits="userSpaceOnUse">
<stop stop-color="#CCAC8C"/>
<stop offset="1" stop-color="#CCAC8C" stop-opacity="0"/>
</linearGradient>
<linearGradient id="paint15_linear" x1="33.7709" y1="53.1411" x2="33.7709" y2="54.8135" gradientUnits="userSpaceOnUse">
<stop stop-color="#CCAC8C"/>
<stop offset="1" stop-color="#CCAC8C" stop-opacity="0"/>
</linearGradient>
</defs>
</svg>
