<svg width="9" opacity='0.3' height="16" viewBox="0 0 9 16" fill="none" xmlns="http://www.w3.org/2000/svg">
<path d="M8.48827 1.10204L1.72288 7.86743L8.48827 14.6328" stroke="white" stroke-width="1.12561"/>
</svg>
