<svg width="17" height="17" viewBox="0 0 17 17" fill="none" xmlns="http://www.w3.org/2000/svg">
<path opacity="1" d="M14.5859 0.435303H2.93361C1.60256 0.435303 0.51947 1.46456 0.51947 2.72945V13.8025C0.51947 15.0674 1.60256 16.0967 2.93361 16.0967H7.79408V10.5601H5.86277V7.80716H7.79408V5.94126C7.79408 4.42318 9.09356 3.18828 10.691 3.18828H13.6202V5.94126H10.691V7.80716H13.6202L13.1374 10.5601H10.691V16.0967H14.5859C15.9169 16.0967 17 15.0674 17 13.8025V2.72945C17 1.46456 15.9169 0.435303 14.5859 0.435303Z" fill="white"/>
</svg>
