<svg width="16" height="20" viewBox="0 0 16 20" fill="none" xmlns="http://www.w3.org/2000/svg">
<path d="M15.0294 4.96566C14.36 2.80263 12.6004 1.04249 10.4374 0.373077C8.14802 -0.336083 5.71223 0.0580557 3.85301 1.42799C2.00749 2.78845 0.905823 4.96781 0.905823 7.25761C0.905823 8.83725 1.40554 10.338 2.3506 11.5973L8.14431 19.0269L13.938 11.5968C15.3524 9.71102 15.7504 7.29405 15.0294 4.96566ZM8.14431 11.1552C5.99538 11.1552 4.24667 9.40651 4.24667 7.25758C4.24667 5.10864 5.99538 3.35994 8.14431 3.35994C10.2932 3.35994 12.0419 5.10864 12.0419 7.25758C12.0419 9.40651 10.2932 11.1552 8.14431 11.1552Z" fill="white"/>
</svg>
